<svg width="30" height="30" viewBox="0 0 30 30" fill="none" xmlns="http://www.w3.org/2000/svg">
  <path d="M15.0725 2.5001C10.6829 2.48246 6.60693 4.75856 4.32574 8.49993C2.04426 12.2418 1.8911 16.9031 3.92207 20.7862L4.15184 21.2342C4.23969 21.3988 4.25663 21.5765 4.20573 21.7406C3.87755 22.6079 3.5892 23.5444 3.35912 24.496L3.33469 24.701C3.33469 25.6577 3.8452 26.3151 4.85839 26.2927L5.02709 26.2723C5.94747 26.0691 6.85388 25.8073 7.74076 25.4884C7.85832 25.4587 8.05087 25.4702 8.22464 25.5413L9.0778 26.0241C9.07972 26.0301 9.08116 26.0345 9.0901 26.0397L9.14736 26.0598C13.7412 28.4753 19.3515 27.8089 23.2496 24.3847C27.1483 20.9599 28.5249 15.4874 26.7094 10.6296C24.8941 5.77233 20.2644 2.53826 15.0725 2.5001Z" fill="#0B0A0A"/>
</svg>
