<svg width="48" height="48" viewBox="0 0 48 48" fill="none" xmlns="http://www.w3.org/2000/svg">
  <path d="M5.98582 11.6401C5.98582 8.5176 8.51832 5.9851 11.6383 5.9851H14.2108C15.7008 5.9851 17.1333 5.3951 18.1933 4.3426L19.9908 2.5426C22.1933 0.330097 25.7733 0.320097 27.9858 2.5226L28.0083 2.5426L29.8083 4.3426C30.8658 5.3951 32.2983 5.9851 33.7908 5.9851H36.3608C39.4833 5.9851 42.0158 8.5176 42.0158 11.6401V14.2076C42.0158 15.7026 42.6058 17.1326 43.6583 18.1926L45.4583 19.9926C47.6708 22.1951 47.6833 25.7726 45.4808 27.9876L45.4583 28.0101L43.6583 29.8101C42.6058 30.8651 42.0158 32.3001 42.0158 33.7901V36.3626C42.0158 39.4851 39.4833 42.0151 36.3608 42.0151H33.7908C32.2983 42.0151 30.8658 42.6076 29.8083 43.6601L28.0083 45.4576C25.8083 47.6726 22.2283 47.6826 20.0133 45.4801C20.0058 45.4726 19.9983 45.4651 19.9908 45.4576L18.1933 43.6601C17.1333 42.6076 15.7008 42.0151 14.2108 42.0151H11.6383C8.51832 42.0151 5.98582 39.4851 5.98582 36.3626V33.7901C5.98582 32.3001 5.39332 30.8651 4.34082 29.8101L2.54332 28.0101C0.328323 25.8076 0.318323 22.2276 2.52082 20.0151L2.54332 19.9926L4.34082 18.1926C5.39332 17.1326 5.98582 15.7026 5.98582 14.2076V11.6401" stroke="url(#paint0_linear)" stroke-width="1.5" stroke-linecap="round" stroke-linejoin="round"/>
  <path d="M17.575 30.4242L30.4249 17.5742" stroke="url(#paint1_linear)" stroke-width="1.5" stroke-linecap="round" stroke-linejoin="round"/>
  <path d="M30.4167 32.307C29.9167 32.307 29.4417 32.107 29.0917 31.757C28.9167 31.582 28.7917 31.357 28.6917 31.132C28.5917 30.907 28.5417 30.6845 28.5417 30.432C28.5417 30.182 28.5917 29.932 28.6917 29.707C28.7917 29.482 28.9167 29.282 29.0917 29.107C29.7917 28.407 31.0417 28.407 31.7417 29.107C31.9167 29.282 32.0667 29.482 32.1667 29.707C32.2417 29.932 32.2917 30.182 32.2917 30.432C32.2917 30.6845 32.2417 30.907 32.1667 31.132C32.0667 31.357 31.9167 31.582 31.7417 31.757C31.3917 32.107 30.9167 32.307 30.4167 32.307Z" fill="url(#paint2_linear)"/>
  <path d="M17.5667 19.4573C17.3167 19.4573 17.0917 19.4048 16.8667 19.3048C16.6417 19.2048 16.4167 19.0823 16.2417 18.9073C16.0667 18.7073 15.9417 18.5073 15.8417 18.2823C15.7417 18.0548 15.6917 17.8323 15.6917 17.5823C15.6917 17.3298 15.7417 17.0823 15.8417 16.8573C15.9417 16.6323 16.0667 16.4073 16.2417 16.2573C16.9667 15.5548 18.1917 15.5548 18.8917 16.2573C19.2417 16.6048 19.4417 17.0823 19.4417 17.5823C19.4417 17.8323 19.4167 18.0548 19.3167 18.2823C19.2167 18.5073 19.0667 18.7073 18.8917 18.9073C18.7167 19.0823 18.5167 19.2048 18.2917 19.3048C18.0667 19.4048 17.8167 19.4573 17.5667 19.4573Z" fill="url(#paint3_linear)"/>
  <defs>
    <linearGradient id="paint0_linear" x1="47.1252" y1="0.876952" x2="0.876747" y2="47.1267" gradientUnits="userSpaceOnUse">
      <stop stop-color="#D93150"/>
      <stop offset="0.515625" stop-color="#EA4E5C"/>
      <stop offset="1" stop-color="#FE6F69"/>
    </linearGradient>
    <linearGradient id="paint1_linear" x1="30.4249" y1="17.5742" x2="17.5749" y2="30.4242" gradientUnits="userSpaceOnUse">
      <stop stop-color="#D93150"/>
      <stop offset="0.515625" stop-color="#EA4E5C"/>
      <stop offset="1" stop-color="#FE6F69"/>
    </linearGradient>
    <linearGradient id="paint2_linear" x1="32.2917" y1="28.582" x2="28.5668" y2="32.3319" gradientUnits="userSpaceOnUse">
      <stop stop-color="#D93150"/>
      <stop offset="0.515625" stop-color="#EA4E5C"/>
      <stop offset="1" stop-color="#FE6F69"/>
    </linearGradient>
    <linearGradient id="paint3_linear" x1="19.4417" y1="15.7305" x2="15.7148" y2="19.4804" gradientUnits="userSpaceOnUse">
      <stop stop-color="#D93150"/>
      <stop offset="0.515625" stop-color="#EA4E5C"/>
      <stop offset="1" stop-color="#FE6F69"/>
    </linearGradient>
  </defs>
</svg>
