<svg width="30" height="30" viewBox="0 0 30 30" fill="none" xmlns="http://www.w3.org/2000/svg">
  <path fill-rule="evenodd" clip-rule="evenodd" d="M21.7482 5.07386H24.4861C25.2914 5.07386 25.9678 5.71148 26 6.57227V16.0091C26 16.8061 25.3558 17.4756 24.5183 17.4756H21.7804C21.2972 17.4756 20.8463 17.2525 20.5886 16.9018L20.2987 16.9655C20.1698 16.9974 16.6589 18.0176 16.6589 21.0144V25.1909L16.2723 25.3184C16.2079 25.3503 14.4041 25.8922 13.0835 24.9358C12.246 24.3301 11.8272 23.3099 11.8272 21.8752V18.4958H10.3455H7.76867H7.06003C5.35285 18.4958 4 17.1249 4 15.4671V15.2758L5.25622 7.43306C5.51391 5.58395 6.83456 4.5 8.89605 4.5H9.25037H10.3455H15.0161H15.306H18.2694C19.2357 4.5 20.0732 4.91445 20.6208 5.58396C20.8785 5.26514 21.2972 5.07386 21.7482 5.07386Z" fill="url(#paint0_linear)"/>
  <rect x="20" y="4" width="2" height="14" fill="#F7F4F5"/>
  <defs>
    <linearGradient id="paint0_linear" x1="4" y1="25.5" x2="30.2042" y2="15.2859" gradientUnits="userSpaceOnUse">
      <stop stop-color="#EE7E62"/>
      <stop offset="1" stop-color="#83487C"/>
    </linearGradient>
  </defs>
</svg>
