<svg width="30" height="30" viewBox="0 0 30 30" fill="none" xmlns="http://www.w3.org/2000/svg">
  <path fill-rule="evenodd" clip-rule="evenodd" d="M14.9998 3.43774C21.386 3.43774 26.5623 8.61524 26.5623 15.0002C26.5623 21.3852 21.386 26.5627 14.9998 26.5627C8.61476 26.5627 3.43726 21.3852 3.43726 15.0002C3.43726 8.61524 8.61476 3.43774 14.9998 3.43774Z" stroke="#0B0A0A" stroke-width="1.5" stroke-linecap="round" stroke-linejoin="round"/>
  <path d="M14.9937 10.2554V15.7791" stroke="#0B0A0A" stroke-width="1.5" stroke-linecap="round" stroke-linejoin="round"/>
  <path d="M14.9938 19.7451H15.0063" stroke="#0B0A0A" stroke-width="1.5" stroke-linecap="round" stroke-linejoin="round"/>
</svg>
