<svg width="7" height="10" viewBox="0 0 7 10" fill="none" xmlns="http://www.w3.org/2000/svg">
  <path d="M0.158325 8.825L3.97499 5L0.158325 1.175L1.33333 0L6.33333 5L1.33333 10L0.158325 8.825Z" fill="url(#paint0_linear)"/>
  <defs>
    <linearGradient id="paint0_linear" x1="6.33333" y1="0" x2="-1.71439" y2="1.84899" gradientUnits="userSpaceOnUse">
      <stop stop-color="#EE7E62"/>
      <stop offset="1" stop-color="#83487C"/>
    </linearGradient>
  </defs>
</svg>
