<svg width="26" height="21" viewBox="0 0 26 21" fill="none"  style="cursor: pointer;" xmlns="http://www.w3.org/2000/svg">
  <path d="M16.6389 5.43396C16.6389 6.0645 16.1722 6.57603 15.5794 6.67339C7.60793 7.98263 3.48174 13.1371 1.56268 18.9675C5.03749 15.4997 9.54905 13.8636 15.3762 13.7739C16.0762 13.7631 16.6389 14.3304 16.6389 15.02V18.7029L24.9473 10.2667L16.6389 1.83039V5.43396ZM16.2108 19.1377L16.2112 19.1372L16.2108 19.1377Z" stroke="#0B0A0A" stroke-width="1.5"/>
</svg>
